Chapter 15 Exploring one variable | Exploratory Data Analysis with R
…
We end up with gaps in the histogram because many bins do not include any data. The take-home message is that we have to pay attention to our data to produce meaningful summaries.

15.1.3 Dot plots

Histograms are good for visualising sample distributions when we have a reasonably large sample size, e.g. >100 observations. They are less effective when a sample is small. In this ‘small data’ situation, it is better to use something called a dot plot9.

We have created subset of penguins that only retains female Adelie penguin observations from 2007, called penguins_small. This is considerably smaller than the original:

## # A tibble: 22 x 8
##    species island    bill_length_mm bill_depth_mm flipper_length_mm body_mass_g
##    <chr>   <chr>              <dbl>         <dbl>             <int>       <int>
##  1 Adelie  Torgersen           39.5          17.4               186        3800
##  2 Adelie  Torgersen           40.3          18                 195        3250
##  3 Adelie  Torgersen           36.7          19.3               193        3450
##  4 Adelie  Torgersen           38.9          17.8               181        3625
##  5 Adelie  Torgersen           41.1          17.6               182        3200
##  6 Adelie  Torgersen           36.6          17.8               185        3700
##  7 Adelie  Torgersen           38.7          19                 195        3450
##  8 Adelie  Torgersen           34.4          18.4               184        3325
##  9 Adelie  Biscoe              37.8          18.3               174        3400
## 10 Adelie  Biscoe              35.9          19.2               189        3800
## # … with 12 more rows, and 2 more variables: sex <chr>, year <int>
…
