Chapter 16 Exploring associations | Exploratory Data Analysis with R
…
The bins argument controls how many hexagonal bins to use when spanning each dimension. The penguins data set is a bit small for this kind of plot (a scatter plot is actually better), so we had to use relatively coarse binning by setting the number of bins to 12.

Notice how similar this looks to the ggplot2 code for a scatter plot. We simply used geom_hex in place of geom_point. This reveals a powerful feature of ggplot2—once we have a working plot, we can often switch to a reasonable alternative by simply changing the type of geom. This makes it very quick to explore a data set in different ways.

What should we do if there are there are many identical pairs of values? For example, imagine that bill length had only been measured to the nearest 2 mm and bill depth had only been measured to the nearest 1 mm, like this:

## # A tibble: 344 x 2
##    bill_length_mm bill_depth_mm
##             <dbl>         <dbl>
##  1             40            19
##  2             40            17
##  3             40            18
##  4             NA            NA
##  5             36            19
##  6             40            21
##  7             38            18
##  8             40            20
##  9             34            18
## 10             42            20
## # … with 334 more rows
…
