Chapter 6 Getting ready to use dplyr | Exploratory Data Analysis with R
…
The data are available in an R package called… palmerpenguins. Like other packages, palmerpenguins can be installed from CRAN using either install.packages or the usual RStudio point-and-click mechanism. Once installed, we can make it available by running library(palmerpenguins) in any R session. After that, just type the name of the data set and R will find it and use it. The version in palmerpenguins is called penguins, by the way.

We could get a copy of the data set and store it as a file on our hard drive, ideally using a standard data format. The most common and portable format for storing rectangular data is as a ‘Comma Separated Value’ (CSV) text file. Once you have a copy of the data as a CSV file, it’s just a matter of using a function like read_csv from the readr package to import the data into R. This is explained in the Managing projects, scripts and data files appendix.

6.4 Um… tibbles?

To increase the scope of what the tidyverse can do, its makers created a special kind of data object known as a ‘tibble.’ This is meant to sound like the word ‘table’ pronounced by a New Zealander. We’re not lying—the person who started the tidyverse is from New Zealand. Its name is a clue that a tibble is a table-like object, i.e. a rectangular data structure similar to a data frame.

In fact, the easiest way to conceptualise a tibble is as a special data frame with a few extra whistles and bells. More often than not, it’s not necessary to pay attention to whether we’re working with an ordinary data frame or a tidyverse tibble—we can often treat them as though they are interchangeable.

That said, there are exceptions to this rule of thumb, and we do occasionally need to work out which one we’re using. A simple way to do this is by printing the data object. Imagine that we’ve imported the Palmer penguins into R and stored it in a tibble called penguins. This is what that would look like if we printed it at the Console:

penguins

## # A tibble: 344 x 8
##    species island bill_length_mm bill_depth_mm flipper_length_… body_mass_g
##    <chr>   <chr>           <dbl>         <dbl>            <int>       <int>
##  1 Adelie  Torge…           39.1          18.7              181        3750
##  2 Adelie  Torge…           39.5          17.4              186        3800
##  3 Adelie  Torge…           40.3          18                195        3250
##  4 Adelie  Torge…           NA            NA                 NA          NA
##  5 Adelie  Torge…           36.7          19.3              193        3450
##  6 Adelie  Torge…           39.3          20.6              190        3650
##  7 Adelie  Torge…           38.9          17.8              181        3625
##  8 Adelie  Torge…           39.2          19.6              195        4675
##  9 Adelie  Torge…           34.1          18.1              193        3475
## 10 Adelie  Torge…           42            20.2              190        4250
## # … with 334 more rows, and 2 more variables: sex <chr>, year <int>
…
