Chapter 9 Summarising and grouping | Exploratory Data Analysis with R
…
The group_by function provides an elegant solution to this kind of problem. All the group_by function does is add a bit of information to a tibble or data frame. In effect, it defines subsets of data based on one or more grouping variables. That’s all it does.

The magic happens when the grouped object is used with a dplyr verb like summarise or mutate. Once a the data has been tagged with grouping information, operations that involve dplyr verbs are carried out on separate subsets of the data—defined by the values of the grouping variable(s)—and then combined.

Basic usage of group_by looks like this:

group_by(<data>, <variable-1>, <variable-2>, ...)

The first argument, <data>, must be the name of the object containing our data. We then have to include one or more additional arguments, where each one is the name of a variable in <data>. We have expressed this as <variable-1>, <variable-2>, ..., where <variable-1> and <variable-2> are names of the first two variables, and the ... is acting as a placeholder for the remaining variables.

We’ll illustrate group_by by using it alongside summarise. We’re aiming to calculate the mean bill length for each species in penguins. This is a two-step process. The first step uses group_by to add grouping information to penguins. Take a look at what we end up with when we do that:

group_by(penguins, species)

## # A tibble: 344 × 8
## # Groups:   species [3]
##    species island    bill_length_mm bill_depth_mm flipper_length_mm body_mass_g
##    <chr>   <chr>              <dbl>         <dbl>             <int>       <int>
##  1 Adelie  Torgersen           39.1          18.7               181        3750
##  2 Adelie  Torgersen           39.5          17.4               186        3800
##  3 Adelie  Torgersen           40.3          18                 195        3250
##  4 Adelie  Torgersen           NA            NA                  NA          NA
##  5 Adelie  Torgersen           36.7          19.3               193        3450
##  6 Adelie  Torgersen           39.3          20.6               190        3650
##  7 Adelie  Torgersen           38.9          17.8               181        3625
##  8 Adelie  Torgersen           39.2          19.6               195        4675
##  9 Adelie  Torgersen           34.1          18.1               193        3475
## 10 Adelie  Torgersen           42            20.2               190        4250
## # ℹ 334 more rows
## # ℹ 2 more variables: sex <chr>, year <int>

Compare this to the output produced when we print the original penguins data set:

penguins

## # A tibble: 344 × 8
##    species island    bill_length_mm bill_depth_mm flipper_length_mm body_mass_g
##    <chr>   <chr>              <dbl>         <dbl>             <int>       <int>
##  1 Adelie  Torgersen           39.1          18.7               181        3750
##  2 Adelie  Torgersen           39.5          17.4               186        3800
##  3 Adelie  Torgersen           40.3          18                 195        3250
##  4 Adelie  Torgersen           NA            NA                  NA          NA
##  5 Adelie  Torgersen           36.7          19.3               193        3450
##  6 Adelie  Torgersen           39.3          20.6               190        3650
##  7 Adelie  Torgersen           38.9          17.8               181        3625
##  8 Adelie  Torgersen           39.2          19.6               195        4675
##  9 Adelie  Torgersen           34.1          18.1               193        3475
## 10 Adelie  Torgersen           42            20.2               190        4250
## # ℹ 334 more rows
## # ℹ 2 more variables: sex <chr>, year <int>
…
9.2.1 More than one grouping variable

What if we need to calculate summaries using more than one grouping variable? The workflow is unchanged. Assume we need to know the mean body mass of males and females of each penguin species. First, we make a grouped copy of penguins using the appropriate grouping variables:

penguins_by_species_sex <- group_by(penguins, species, sex)

We called the grouped tibble penguins_by_species_sex. Look at what happens when we print this:

penguins_by_species_sex

## # A tibble: 344 × 8
## # Groups:   species, sex [8]
##    species island    bill_length_mm bill_depth_mm flipper_length_mm body_mass_g
##    <chr>   <chr>              <dbl>         <dbl>             <int>       <int>
##  1 Adelie  Torgersen           39.1          18.7               181        3750
##  2 Adelie  Torgersen           39.5          17.4               186        3800
##  3 Adelie  Torgersen           40.3          18                 195        3250
##  4 Adelie  Torgersen           NA            NA                  NA          NA
##  5 Adelie  Torgersen           36.7          19.3               193        3450
##  6 Adelie  Torgersen           39.3          20.6               190        3650
##  7 Adelie  Torgersen           38.9          17.8               181        3625
##  8 Adelie  Torgersen           39.2          19.6               195        4675
##  9 Adelie  Torgersen           34.1          18.1               193        3475
## 10 Adelie  Torgersen           42            20.2               190        4250
## # ℹ 334 more rows
## # ℹ 2 more variables: sex <chr>, year <int>
…
This shows mean body mass for each unique combination of species and sex. The first line shows that the mean body mass associated with female Adelie penguins is 3369; the second line shows us the mean body mass associated with male Adelie penguins is 4043. The third line shows us the mean body mass of Adelie penguins where sex is missing (NA). That explains why we ended up with more groups than unique combinations of species and sex — missing values create extra groups.

9.2.2 Using group_by with other verbs

The summarise function is the dplyr verb that is most often used with grouped data. However, all the main dplyr verbs will alter their behaviour to respect group information when it is present. For example, when mutate or transmute are used with a grouped object the calculation of new variables occur “by group”. Here’s an example:

# create a data set 'mean centred' bill length variable
transmute(penguins_by_species_sex,
          body_mass_cen = body_mass_g - mean(body_mass_g, na.rm = TRUE))

## # A tibble: 344 × 3
## # Groups:   species, sex [8]
##    species sex    body_mass_cen
##    <chr>   <chr>          <dbl>
##  1 Adelie  male          -293. 
##  2 Adelie  female         431. 
##  3 Adelie  female        -119. 
##  4 Adelie  <NA>            NA  
##  5 Adelie  female          81.2
##  6 Adelie  male          -393. 
##  7 Adelie  female         256. 
##  8 Adelie  male           632. 
##  9 Adelie  <NA>           -65  
## 10 Adelie  <NA>           710  
## # ℹ 334 more rows

This calculated a standardised measure of body mass. The new body_mass_cen variable contains the difference between the original body mass and its mean in the appropriate species-sex group (rather than the overall mean).

9.3 Removing grouping information

On occasion, it’s necessary to remove grouping information and revert to operating on the whole data set. The ungroup function removes grouping information:

ungroup(penguins_by_species)

## # A tibble: 344 × 8
##    species island    bill_length_mm bill_depth_mm flipper_length_mm body_mass_g
##    <chr>   <chr>              <dbl>         <dbl>             <int>       <int>
##  1 Adelie  Torgersen           39.1          18.7               181        3750
##  2 Adelie  Torgersen           39.5          17.4               186        3800
##  3 Adelie  Torgersen           40.3          18                 195        3250
##  4 Adelie  Torgersen           NA            NA                  NA          NA
##  5 Adelie  Torgersen           36.7          19.3               193        3450
##  6 Adelie  Torgersen           39.3          20.6               190        3650
##  7 Adelie  Torgersen           38.9          17.8               181        3625
##  8 Adelie  Torgersen           39.2          19.6               195        4675
##  9 Adelie  Torgersen           34.1          18.1               193        3475
## 10 Adelie  Torgersen           42            20.2               190        4250
## # ℹ 334 more rows
## # ℹ 2 more variables: sex <chr>, year <int>
…
